{
  "_note1": "KEEP THIS FILE! Check it into a version control system (VCS) like git.",
  "_note2": "ObjectBox manages crucial IDs for your object model. See docs for details.",
  "_note3": "If you have VCS merge conflicts, you must resolve them according to ObjectBox docs.",
  "entities": [
    {
      "id": "2:4884848582713392766",
      "lastPropertyId": "4:3205219195448433246",
      "name": "Song",
      "properties": [
        {
          "id": "1:7187300948924109991",
          "name": "id"
        },
        {
          "id": "2:7613407797479646757",
          "name": "name"
        },
        {
          "id": "3:6275015227373936117",
          "name": "artistName"
        },
        {
          "id": "4:3205219195448433246",
          "name": "artworkUrl"
        }
      ],
      "relations": []
    }
  ],
  "lastEntityId": "2:4884848582713392766",
  "lastIndexId": "0:0",
  "lastRelationId": "0:0",
  "lastSequenceId": "0:0",
  "modelVersion": 4,
  "modelVersionParserMinimum": 4,
  "retiredEntityUids": [
    116080016476492779
  ],
  "retiredIndexUids": [],
  "retiredPropertyUids": [
    171293449099799325,
    6419871527828389552,
    5049725254047365654,
    3330342806890897678
  ],
  "retiredRelationUids": [],
  "version": 1
}